{
    "devices": [],
    "dns": [],
    "interfaces": [
        {
            "bytes_in": 12,
            "bytes_out": 12,
            "end_msec": 1570891565,
            "end_sec": 1570891565,
            "ifname": "<string>",
            "ip": "<string>",
            "len_msec": 12,
            "mask": "<string>",
            "miss_pkts": 12,
            "pcap_pkts": 12,
            "proc_pkts": 12,
            "slice": 12,
            "wan": 12
        },
        {
            "bytes_in": 12,
            "bytes_out": 12,
            "end_msec": 12,
            "end_sec": 12,
            "ifname": "<string>",
            "ip":  "<string>",
            "len_msec": 12,
            "mask":  "<string>",
            "miss_pkts": 12,
            "pcap_pkts": 12,
            "proc_pkts": 12,
            "slice": 12,
            "wan": 12
        }
    ],
    "table_stats": [
        {
            "add_10": 12,
            "add_all": 12,
            "add_busy": 12,
            "add_found": 12,
            "add_limit": 12,
            "add_repl": 12,
            "name": "<string>"
        },
        {
            "add_10": 12,
            "add_all": 12,
            "add_busy": 12,
            "add_found": 12,
            "add_limit": 12,
            "add_repl": 12,
            "name": "<string>"
        },
        {
            "add_10": 12,
            "add_all": 12,
            "add_busy": 12,
            "add_found": 12,
            "add_limit": 12,
            "add_repl": 12,
            "name": "<string>"
        },
        {
            "add_10": 12,
            "add_all": 12,
            "add_busy": 12,
            "add_found": 12,
            "add_limit": 12,
            "add_repl": 12,
            "name": "<string>"
        },
        {
            "add_limit": 12,
            "add_repl": 12,
            "name": "<string>"
        }
    ]
}
