{
    "devices": [
        {
            "ifname": "br-lan",
            "ip": "192.168.15.121",
            "mac": "00:00:00:00:01:00",
            "conn": [
                {
                    "r_port": 443,
                    "r_ip": "23.10.90.109",
                    "proto": 6,
                    "b_in": [
                        2694
                    ],
                    "b_out": [
                        3354
                    ]
                },
                {
                    "r_port": 443,
                    "r_ip": "3.233.191.204",
                    "proto": 6,
                    "b_in": [
                        1897
                    ],
                    "b_out": [
                        1075
                    ]
                },
                {
                    "r_port": 443,
                    "r_ip": "17.248.138.41",
                    "proto": 6,
                    "b_in": [
                        7758
                    ],
                    "b_out": [
                        6902
                    ]
                },
                {
                    "r_port": 443,
                    "r_ip": "17.248.138.10",
                    "proto": 6,
                    "b_in": [
                        4975
                    ],
                    "b_out": [
                        5548
                    ]
                },
                {
                    "r_port": 443,
                    "r_ip": "208.68.76.79",
                    "proto": 6,
                    "b_in": [
                        6129
                    ],
                    "b_out": [
                        2861
                    ]
                },
                {
                    "r_port": 5223,
                    "r_ip": "17.57.144.165",
                    "proto": 6,
                    "b_in": [
                        119
                    ],
                    "b_out": [
                        201
                    ]
                },
                {
                    "r_port": 443,
                    "r_ip": "172.217.10.110",
                    "proto": 6,
                    "b_in": [
                        16752
                    ],
                    "b_out": [
                        14304
                    ]
                },
                {
                    "r_port": 443,
                    "r_ip": "13.93.48.10",
                    "proto": 6,
                    "b_in": [
                        0
                    ],
                    "b_out": [
                        764
                    ]
                },
                {
                    "r_port": 443,
                    "r_ip": "23.54.180.107",
                    "proto": 6,
                    "b_in": [
                        163
                    ],
                    "b_out": [
                        217
                    ]
                },
                {
                    "r_port": 443,
                    "r_ip": "23.78.208.56",
                    "proto": 6,
                    "b_in": [
                        9972
                    ],
                    "b_out": [
                        1633
                    ]
                },
                {
                    "r_port": 443,
                    "r_ip": "96.6.28.122",
                    "proto": 6,
                    "b_in": [
                        5536
                    ],
                    "b_out": [
                        2526
                    ]
                },
                {
                    "r_port": 443,
                    "r_ip": "17.57.12.11",
                    "proto": 6,
                    "b_in": [
                        4271
                    ],
                    "b_out": [
                        2179
                    ]
                },
                {
                    "r_port": 443,
                    "r_ip": "13.33.38.34",
                    "proto": 6,
                    "b_in": [
                        0
                    ],
                    "b_out": [
                        54
                    ]
                },
                {
                    "r_port": 443,
                    "r_ip": "172.217.6.226",
                    "proto": 6,
                    "b_in": [
                        0
                    ],
                    "b_out": [
                        54
                    ]
                },
                {
                    "r_port": 443,
                    "r_ip": "151.101.118.49",
                    "proto": 6,
                    "b_in": [
                        0
                    ],
                    "b_out": [
                        54
                    ]
                },
                {
                    "r_port": 443,
                    "r_ip": "151.101.194.166",
                    "proto": 6,
                    "b_in": [
                        0
                    ],
                    "b_out": [
                        54
                    ]
                },
                {
                    "r_port": 443,
                    "r_ip": "151.101.117.188",
                    "proto": 6,
                    "b_in": [
                        0
                    ],
                    "b_out": [
                        54
                    ]
                },
                {
                    "r_port": 443,
                    "r_ip": "13.33.85.4",
                    "proto": 6,
                    "b_in": [
                        0
                    ],
                    "b_out": [
                        54
                    ]
                }
            ]
        }
    ],
    "dns": [
        {
            "name": "calendar.google.com",
            "ip": "172.217.10.110"
        },
        {
            "name": "gsp64-ssl.ls-apple.com.akadns.net",
            "ip": "17.142.171.5"
        },
        {
            "name": "gsp64-ssl.ls-apple.com.akadns.net",
            "ip": "17.142.171.7"
        },
        {
            "name": "e673.dsce9.akamaiedge.net",
            "ip": "23.78.208.56"
        },
        {
            "name": "gspe11-ssl.ls.apple.com.edgekey.net",
            "ip": "23.78.210.178"
        },
        {
            "name": "gsp64-ssl.ls-apple.com.akadns.net",
            "ip": "17.142.171.6"
        }
    ],
    "interfaces": [
        {
            "ifname": "br-lan",
            "ip": "192.168.15.1",
            "mask": "255.255.255.0",
            "wan": 0,
            "slice": 0,
            "end_sec": 1572392924,
            "end_msec": 187,
            "len_msec": 30008,
            "bytes_in": 39368,
            "bytes_out": 60922,
            "proc_pkts": 356,
            "pcap_pkts": 356,
            "miss_pkts": 0
        },
        {
            "ifname": "eth0",
            "ip": "10.0.0.42",
            "mask": "255.255.255.0",
            "wan": 1,
            "slice": 0,
            "end_sec": 1572392924,
            "end_msec": 187,
            "len_msec": 30002,
            "bytes_in": 63282,
            "bytes_out": 53626,
            "proc_pkts": 0,
            "pcap_pkts": 0,
            "miss_pkts": 0
        }
    ],
    "table_stats": [
        {
            "name": "dns_names",
            "add_all": 14,
            "add_limit": 0,
            "add_busy": 0,
            "add_10": 14,
            "add_found": 6,
            "add_repl": 0
        },
        {
            "name": "dns_ips",
            "add_all": 6,
            "add_limit": 0,
            "add_busy": 0,
            "add_10": 6,
            "add_found": 0,
            "add_repl": 0
        },
        {
            "name": "connections",
            "add_all": 294,
            "add_limit": 0,
            "add_busy": 0,
            "add_10": 294,
            "add_found": 277,
            "add_repl": 0
        },
        {
            "name": "devices",
            "add_all": 346,
            "add_limit": 0,
            "add_busy": 0,
            "add_10": 346,
            "add_found": 345,
            "add_repl": 0
        },
        {
            "name": "festats",
            "add_all": 0,
            "add_limit": 0,
            "add_busy": 0,
            "add_10": 0,
            "add_found": 0,
            "add_repl": 0
        }
    ]
}
