{
    "radios": [
        {
            "channel": 12,
            "extras": {
                "country": "<string>",
                "hwmode": "<string>"
            },
            "name": "<string>",
            "vaps": [
                {
                    "bssid": "<string>",
                    "extras": {
                        "max_txpower": 12,
                        "noise": 12
                    },
                    "interface": "<string>",
                    "ssid": "<string>",
                    "stas": []
                }
            ]
        }
    ]
}
